{
  "model": "RequestSuspendActions",
  "title": "Student Suspend",
  "settings": {
    "i18n": {
      "el": {
        "Student Suspend": "Αναστολή Φοιτητή",
        "Use this field if you want to inform office of the registrar for something more about your request":"Χρησιμοποιήστε το πεδίο αυτό για να δηλώσετε κάτι επιπλέον σχετικά με την αίτηση σας",
        "Suspend Title": "Τίτλος Αίτησης",
        "Notes": "Σχόλια",
        "The number of periods that a suspension of studies lasts": " Ο αριθμός των περιόδων που θα κρατήσει η αναστολή σπουδών",
        "Suspend Periods": "Περίοδοι αναστολής",
        "Suspend Year": "Έτος αναστολής",
        "Suspend Period": "Περίοδος αναστολής"
      }
    }
  },
  "components": [
    {
      "type": "fieldset",
      "components": [
        {
          "columns": [
            {
              "components": [
                {
                  "label": "Suspend Title",
                  "labelPosition": "top",
                  "widget": {
                    "type": "input"
                  },
                  "validate": {
                    "required": false
                  },
                  "key": "name",
                  "type": "textfield",
                  "input": true,
                  "disabled": false
                }
              ],
              "width": 12
            },
            {
              "components": [
                {
                  "label": "Suspend Year",
                  "labelPosition": "top",
                  "key": "suspensionYear.alternateName",
                  "type": "select",
                  "searchEnabled": true,
                  "dataSrc": "url",
                  "data": {
                    "url": "AcademicYears?$top={{limit}}&$skip={{skip}}&$orderby=id desc",
                    "headers": []
                  },
                  "limit": 20,
                  "template": "{{ item.alternateName }}",
                  "input": true,
                  "lazyLoad": true,
                  "selectValues": "value",
                  "disabled": true,
                  "widget": "choicesjs",
                  "validate": {
                    "required": true
                  }
                }
              ],
              "width": 3
            },
            {
              "components": [
                {
                  "label": "Suspend Period",
                  "labelPosition": "top",
                  "widget": "choicesjs",
                  "dataSrc": "url",
                  "data": {
                    "url": "AcademicPeriods",
                    "headers": []
                  },
                  "template": "{{ item.name }}",
                  "selectValues": "value",
                  "key": "suspensionPeriod.name",
                  "type": "select",
                  "input": true,
                  "disabled": true,
                  "searchEnabled": false,
                  "validate": {
                    "required": true
                  }
                }
              ],
              "width": 3
            },
            {
              "components": [
                {
                  "label": "Suspend Periods",
                  "key": "suspensionPeriods",
                  "labelPosition": "top",
                  "validate": {
                    "required": true
                  },
                  "input": true,
                  "type": "number",
                  "clearOnRefresh": true,
                  "disabled": false,
                  "description": "The number of periods that a suspension of studies lasts"
                }
              ],
              "width": 12,
              "offset": 0,
              "push": 0,
              "pull": 0
            },
            {
              "components": [
                {
                  "label": "Notes",
                  "labelPosition": "top",
                  "widget": {
                    "type": "input"
                  },
                  "validate": {
                    "required": false
                  },
                  "key": "description",
                  "type": "textarea",
                  "input": true,
                  "description": "Use this field if you want to inform office of the registrar for something more about your request"
                }
              ],
              "width": 12
            },
            {
              "components": [
                {
                  "label": "Action Status",
                  "labelPosition": "top",
                  "dataSrc": "url",
                  "data": {
                    "url": "ActionStatusTypes",
                    "headers": []
                  },
                  "template": "{{ item.name }}",
                  "key": "actionStatus",
                  "type": "select",
                  "input": true,
                  "selectValues": "value",
                  "widget": "choicesjs",
                  "searchEnabled": false,
                  "validate": {
                    "required": false
                  },
                  "disabled": true,
                  "valueProperty": "id",
                  "lazyLoad": false,
                  "hidden": true
                }
              ],
              "width": 12
            }
          ],
          "customClass": "text-dark",
          "hideLabel": true,
          "type": "columns",
          "input": false
        }
      ]
    },
    {
      "type": "button",
      "label": "Submit",
      "key": "submit",
      "disableOnInvalid": true,
      "input": true
    }
  ],
  "width": 3
}
